…
    ## [1] -0.50219235  0.26306233 -0.07891709  1.77356962  0.23394254  0.63726018
    ## [7] -0.58179068  1.42906542

``` r
x <- rnorm(500)
y <- rnorm(500)
logic_vtr <- (x+y)>1
logic_num <- as.numeric(logic_vtr)
logic_ftr <- as.factor(logic_vtr)

plot_df <- tibble(x,y,logic_vtr,logic_num,logic_ftr)
plot_df
```

    ## # A tibble: 500 x 5
    ##          x       y logic_vtr logic_num logic_ftr
    ##      <dbl>   <dbl> <lgl>         <dbl> <fct>    
    ##  1 -0.825  -0.576  FALSE             0 FALSE    
    ##  2 -0.360   0.407  FALSE             0 FALSE    
    ##  3  0.0899 -0.0453 FALSE             0 FALSE    
    ##  4  0.0963  0.441  FALSE             0 FALSE    
    ##  5 -0.202   2.24   TRUE              1 TRUE     
    ##  6  0.740  -0.586  FALSE             0 FALSE    
    ##  7  0.123   0.599  FALSE             0 FALSE    
    ##  8 -0.0293  1.27   TRUE              1 TRUE     
    ##  9 -0.389  -0.912  FALSE             0 FALSE    
    ## 10  0.511  -1.38   FALSE             0 FALSE    
    ## # ... with 490 more rows
…
